{
    "current_page": 1,
    "data": [
        {
            "id": 3418,
            "thumbnail": "http:\/\/45.157.91.154\/static\/information\/15975495951735.jpg",
            "title": "\u7a33\u5b9a\u9635\u5bb9\u6c38\u4e0d\u53d8\uff0c10.16\u7248\u672c\u7b54\u6848\uff1a\u91cd\u79d8\u5b87\u822a\u72d9",
            "gametype": "\u82f1\u96c4\u8054\u76df",
            "gametypeid": 3,
            "time": "2020\u5e7408\u670816\u65e5 11:46",
            "body": "<div class=\"new_conts\">\n<p>\u597d\u591a\u5c0f\u4f19\u4f34\u4eec\u4e0d\u77e5\u905310.16\u7248\u672c\u73a9\u4ec0\u4e48\uff0c\u4eca\u5929\u5c31\u7ed9\u5927\u5bb6\u63a8\u8350\u4e00\u4e2a\u7a33\u5b9a\u4e0a\u5206\u7684\u9635\u5bb9\uff0c\u91cd\u79d8\u5b87\u822a\u72d9\u7684\u73a9\u6cd5\u3002<\/p>\n<h2>\u5b8c\u7f8e\u9635\u5bb9<\/h2>\n<p><img class=\"lazy\" data-original=\"https:\/\/si1.go2yd.com\/get-image\/0jE74vvnaz2\" style=\"display:block; margin-left:auto; margin-right:auto;\" \/><\/p>\n<p>\u8be5\u9635\u5bb9\u9700\u89819\u4eba\u53e3\uff0c\u5206\u522b\u662f\u94c1\u7537\u3001\u7334\u5b50\u3001\u6cf0\u5766\u3001\u6770\u65af\u3001\u5361\u5c14\u739b\u3001\u63d0\u83ab\u3001\u7eb3\u5c14\u3001\u70ec\u548c\u7d22\u62c9\u5361\u3002<\/p>\n<h2>\u9635\u5bb9\u7f81\u7eca<\/h2>\n<p>\u3010\u5b87\u822a\u54583\/3\u3011\u3010\u5b87\u822a\u5458\u3011\u82f1\u96c4\u7684\u6cd5\u529b\u6d88\u8017\u51cf\u5c1130\u3002<\/p>\n<p><img class=\"lazy\" data-original=\"https:\/\/si1.go2yd.com\/get-image\/0jE74vhuGf2\" style=\"display:block; margin-left:auto; margin-right:auto;\" \/><\/p>\n<p>\u3010\u91cd\u88c5\u6218\u58eb4\/4\u3011\u91cd\u88c5\u6218\u58eb\u4eec\u83b7\u5f97\u989d\u5916\u62a4\u7532\u3002<\/p>\n<p><img class=\"lazy\" data-original=\"https:\/\/si1.go2yd.com\/get-image\/0jE74vwhmmu\" style=\"display:block; margin-left:auto; margin-right:auto;\" \/><\/p>\n<p>\u3010\u6697\u661f3\/3\u3011\u3010\u6697\u661f\u3011\u7f81\u7eca\u73b0\u5728\u4f1a\u5728\u4e00\u540d\u53cb\u65b9\u9635\u4ea1\u65f6\u89e6\u53d1\uff0c\u800c\u975e\u4ee5\u524d\u7684\u9700\u8981\u5728\u4e00\u540d\u3010\u6697\u661f\u3011\u82f1\u96c4\u9635\u4ea1\u65f6\u89e6\u53d1<\/p>\n<p><img class=\"lazy\" data-original=\"https:\/\/si1.go2yd.com\/get-image\/0jE74viwWXo\" style=\"display:block; margin-left:auto; margin-right:auto;\" \/><\/p>\n<p>\u3010\u72d9\u795e2\/2\u3011\u3010\u72d9\u795e\u3011\u4e0e\u76ee\u6807\u4e4b\u95f4\u6bcf\u76f8\u8ddd1\u683c\uff0c\u9020\u6210\u7684\u4f24\u5bb3\u5c31\u4f1a\u83b7\u5f97\u4e00\u5b9a\u63d0\u5347\u3002<\/p>\n<p><img class=\"lazy\" data-original=\"https:\/\/si1.go2yd.com\/get-image\/0jE74vl5jKC\" style=\"display:block; margin-left:auto; margin-right:auto;\" \/><\/p>\n<p>\u3010\u79d8\u672f\u5e082\/2\u3011\u6240\u6709\u53cb\u519b\u83b7\u5f97\u9b54\u6cd5\u6297\u6027\u3002<\/p>\n<p><img class=\"lazy\" data-original=\"https:\/\/si1.go2yd.com\/get-image\/0jE74voa08m\" style=\"display:block; margin-left:auto; margin-right:auto;\" \/><\/p>\n<h2>\u9635\u5bb9\u4e3bC<\/h2>\n<p>\u8fd9\u5957\u9635\u5bb9\u4e3bC\u5206\u522b\u6709\u4e09\u4e2a\u82f1\u96c4\u3002<\/p>\n<p><img class=\"lazy\" data-original=\"https:\/\/si1.go2yd.com\/get-image\/0jE74vXbrn6\" style=\"display:block; margin-left:auto; margin-right:auto;\" \/><\/p>\n<p>\u4f5c\u4e3a\u524d\u6392\u627f\u4f24\u7684\u7334\u5b50\uff0c\u5c5e\u6027\u975e\u5e38\u7684\u9ad8\uff0c\u518d\u7ed9\u4e0a\u4ed6\u4e09\u4ef6\u9632\u5fa1\u88c5\u5907\uff0c\u5c31\u66f4\u52a0\u7684\u8089\u4e86\u3002<\/p>\n<p>\u53cd\u4f24\u7532\u53ef\u4ee5\u62b5\u6297\u7269\u7406\u4f24\u5bb3\u4ee5\u53ca\u5e73A\uff0c\u79bb\u5b50\u706b\u82b1\u53ef\u4ee5\u9488\u5bf9\u5feb\u901f\u91ca\u653e\u6280\u80fd\u7684\u6cd5\u5e08\u7b49\u82f1\u96c4\uff0c\u72c2\u5f92\u5219\u662f\u589e\u52a0\u7334\u5b50\u7684\u8840\u91cf\u3002<\/p>\n<p>\u6cd5\u7cfb\u88c5\u5907\u5219\u662f\u7ed9\u5230\u63d0\u83ab\uff0c\u84dd\u9738\u7b26\u642d\u914d\u5b87\u822a\u5458\u7f81\u7eca\uff0c\u53ef\u4ee5\u8ba9\u63d0\u83ab\u4e0d\u65ad\u7684\u6254\u8611\u83c7\uff0c\u9b3c\u4e66\u548c\u5e3d\u5b50\u5219\u662f\u63d0\u5347\u4e86\u63d0\u83ab\u7684\u4f24\u5bb3\u3002<\/p>\n<p>\u70ec\u5219\u8981\u7ed9\u5230\u6700\u4e3a\u5173\u952e\u7684\u590d\u6d3b\u7532\uff0c\u6709\u4e86\u590d\u6d3b\u7532\u70ec\u5c31\u6709\u5bb9\u9519\u7387\uff0c\u53ef\u4ee5\u7ad9\u8d77\u6765\u7b2c\u4e8c\u6b21\u8f93\u51fa\uff0c\u8f7b\u8bed\u548c\u65e0\u5c3d\u5728\u642d\u914d\u4e0a\u72d9\u795e\u7684\u7f81\u7eca\uff0c\u53ef\u4ee5\u8ba9\u70ec\u4f24\u5bb3\u6700\u5927\u5316\u3002<\/p>\n<h2>\u9635\u5bb9\u73a9\u6cd5<\/h2>\n<p>\u56e0\u4e3a\u8fd9\u5957\u9635\u5bb9\u9700\u8981\u7684\u662f9\u4eba\u53e3\u6210\u578b\uff0c\u5e76\u4e14\u5f88\u591a\u82f1\u96c4\u90fd\u662f4\u91d1\u5e01\u4ee5\u4e0a\uff0c\u6240\u4ee5\u4e00\u5b9a\u8981\u63a7\u597d\u7ecf\u6d4e\uff0c\u524d\u671f\u4e0d\u7ba1\u662f\u8fde\u80dc\u4e5f\u597d\u8fde\u8d25\u4e5f\u597d\uff0c\u4e00\u5b9a\u8981\u5feb\u901f\u7684\u6512\u597d50\u91d1\u5e01\u3002<\/p>\n<p><img class=\"lazy\" data-original=\"https:\/\/si1.go2yd.com\/get-image\/0jE77C1VYjw\" style=\"display:block; margin-left:auto; margin-right:auto;\" \/><\/p>\n<p>\u5982\u679c\u662f\u8fde\u80dc\uff0c\u53ef\u4ee5\u5229\u7528\u5229\u606f\u5feb\u901f\u7684\u63d0\u5347\u4eba\u53e3\uff0c\u628a\u8fde\u80dc\u4e00\u76f4\u6253\u4e0b\u53bb\u3002\u5982\u679c\u662f\u8fde\u8d25\uff0c\u53ef\u4ee5\u5229\u7528\u5229\u606f\u8c03\u6574\u9635\u5bb9\uff0c\u5b8c\u5584\u4e00\u4e0b\u6253\u8fde\u80dc\u3002<\/p>\n<p>\u5f538\u4eba\u53e3\u4e4b\u540e\uff0c\u9635\u5bb9\u7b97\u662f\u57fa\u672c\u6210\u578b\uff0c\u53ef\u4ee5\u6839\u7edd\u9635\u5bb9\u7b49\u7ea7\uff0c\u9009\u62e9\u662f\u5426\u51b29\u3002\u4e00\u65e6\u4e0a9\uff0c\u76f4\u63a5AllinD\u5361\uff0c\u51b3\u8d5b\u5708\u8981\u8bb0\u4f4f\u8c03\u6574\u4e3bC\u7684\u7ad9\u4f4d\uff0c\u4e0d\u8981\u88ab\u51cc\u98ce\u5439\u8d77\u6765\u3002<\/p>\n<h2>\u603b\u7ed3<\/h2>\n<p>\u91cd\u79d8\u5b87\u822a\u72d9\u662f\u4e00\u4e2a\u975e\u5e38\u666e\u904d\u7684\u73a9\u6cd5\uff0c\u8fd9\u5957\u73a9\u6cd5\u6709\u673a\u4f1a\u53bb\u51b2\u51fb\u7b2c\u4e00\uff0c\u4fdd\u8bc1\u524d\u56db\u662f\u7a33\u5b9a\u7684\uff0c\u662f\u975e\u5e38\u9002\u5408\u7528\u6765\u4e0a\u5206\u7684\u73a9\u6cd5\uff0c\u5404\u4f4d\u5c0f\u4f19\u4f34\u4eec\u8d76\u7d27\u53bb\u8bd5\u8bd5\u5427\u3002<\/p><span style=\"font-size:16px;font-family:Microsoft YaHei;color:#E53333;text-indent:2em\"><\/span> <\/div>\n",
            "created_at": null,
            "updated_at": null,
            "unix": "1597578360"
        },
        ... ...
        {
            "id": 3427,
            "thumbnail": "http:\/\/45.157.91.154\/static\/information\/15974640608590.jpg",
            "title": "10.16\u6392\u4f4d\u4e0a\u5206\u201c\u6bd2\u7624\u201d \u4e0a\u8defAP\u5c0f\u4e11\u72e1\u733e\u65e0\u6bd4",
            "gametype": "\u82f1\u96c4\u8054\u76df",
            "gametypeid": 3,
            "time": "2020\u5e7408\u670815\u65e5 12:01",
            "body": "<div class=\"new_conts\">\n<p>\u54c8\u55bd\u5404\u4f4d\u5c0f\u4f19\u4f34\u4eec\uff0c\u76f8\u4fe1\u5927\u5bb6\u5728\u6392\u4f4d\u4e2d\u90fd\u9047\u5230\u8fc7\u5c0f\u4e11\u8fd9\u4e2a\u82f1\u96c4\uff0c\u5e76\u4e14\u88ab\u8fd9\u4e2a\u82f1\u96c4\u201c\u6076\u5fc3\u201d\u8fc7\u5f88\u591a\u56de\u3002\u8fd9\u4e2a\u82f1\u96c4\u7684\u673a\u5236\u5bfc\u81f4\u4e86\u8be5\u82f1\u96c4\u5f88\u8ba8\u4eba\u538c\uff0c\u4e5f\u88ab\u73a9\u5bb6\u4eec\u79f0\u4e4b\u4e3a\u201c\u6bd2\u7624\u201d\u4eca\u5929\u5c31\u7ed9\u5927\u5bb6\u63a8\u8350\u8fd9\u4e2a\u4e0a\u5206\u201c\u6bd2\u7624\u201dAP\u5c0f\u4e11\u7684\u73a9\u6cd5\u3002<\/p>\n<p><img class=\"lazy\" data-original=\"https:\/\/si1.go2yd.com\/get-image\/0jCTBV01ZBo\" style=\"display:block; margin-left:auto; margin-right:auto;\" \/><\/p>\n<h2>\u7b26\u6587\u9009\u62e9<\/h2>\n<p><img class=\"lazy\" data-original=\"https:\/\/si1.go2yd.com\/get-image\/0jCTBUp2bcO\" style=\"display:block; margin-left:auto; margin-right:auto;\" \/><\/p>\n<p>\u8fd9\u5957\u9635\u5bb9\u4e3b\u63a8\u7684\u662fAP\uff0c\u5728\u7b26\u6587\u52a0\u70b9\u4e0a\uff0c\u9009\u62e9\u6d88\u8017\u80fd\u529b\u6700\u5f3a\u7684\u5deb\u672f\u7cfb\u5f57\u661f\u4e3a\u7b26\u6587\u57fa\u77f3\u3002\u526f\u7cfb\u7b26\u6587\u9009\u62e9\u4e3b\u5bb0\u7cfb\u3002<\/p>\n<p>\u8fd9\u5957\u7b26\u6587\u9009\u62e9\u53ef\u4ee5\u8ba9\u5c0f\u4e11\u5728\u4e0a\u8def\u6d88\u8017\u80fd\u529b\u66f4\u5f3a\uff0c\u53ef\u4ee5\u901a\u8fc7E\u6280\u80fd\u89e6\u53d1\u5f57\u661f\u8fdb\u884c\u7ebf\u4e0a\u6d88\u8017\uff0c\u5e76\u4e14\u8fd8\u6709\u56de\u84dd\u4ee5\u53ca\u56de\u8840\u3002<\/p>\n<h2>\u88c5\u5907\u9009\u62e9<\/h2>\n<p><img class=\"lazy\" data-original=\"https:\/\/si1.go2yd.com\/get-image\/0jCTBTrjO3U\" style=\"display:block; margin-left:auto; margin-right:auto;\" \/><\/p>\n<p>\u88c5\u5907\u9009\u62e9\u4e0a\uff0c\u4f18\u5148\u51fa\u6d77\u514b\u65af\u79d1\u6280\u8170\u5e26\uff0c\u6709\u4e86\u8170\u5e26\u4e4b\u540e\u4e0d\u7ba1\u662f\u6e05\u7ebf\u80fd\u529b\u8fd8\u662f\u8ffd\u51fb\u80fd\u529b\u90fd\u4e0a\u4e00\u4e2a\u6863\u6b21\u3002\u4e4b\u540e\u9009\u62e9\u5362\u767b\u56de\u84dd\u4fdd\u8bc1\u6709\u6301\u7eed\u8f93\u51fa\u7684\u80fd\u529b\uff0c\u5927\u5e3d\u5b50\u548c\u6cd5\u7a7f\u68d2\u589e\u52a0\u5c0f\u4e11\u7684\u4f24\u5bb3\u3002<\/p>\n<h2>\u6280\u80fd\u9009\u62e9<\/h2>\n<p><img class=\"lazy\" data-original=\"https:\/\/si1.go2yd.com\/get-image\/0jCTBUl6B7Y\" style=\"display:block; margin-left:auto; margin-right:auto;\" \/><\/p>\n<p>\u6280\u80fd\u52a0\u70b9\u4e0a\uff0c\u9009\u62e9\u4e3bE\u526fW\u3002<\/p>\n<h2>\u82f1\u96c4\u73a9\u6cd5<\/h2>\n<p>1\u7ea7\u7684\u65f6\u5019\u70b9\u51faE\u6280\u80fd\uff0c\u5728\u7ebf\u4e0a\u591a\u7528E\u6280\u80fd\u6d88\u8017\u30023\u7ea7\u7684\u65f6\u5019\u5c31\u53ef\u4ee5\u52fe\u5f15\u5bf9\u65b9\u7684\u8d70\u4f4d\uff0c\u628a\u654c\u65b9\u5f15\u5230\u6709\u76d2\u5b50\u7684\u5730\u65b9\uff0c\u7136\u540e\u6050\u60e7\u6253\u51fa\u4e00\u5957\u6d88\u8017\u3002\u5982\u679c\u8fd9\u4e2a\u65f6\u5019\u5bf9\u9762\u4e0d\u56de\u5bb6\u9009\u62e9\u7ebf\u4e0a\u7ee7\u7eed\u5403\u7ebf\uff0c\u8fd9\u4e2a\u65f6\u5019\u5c31\u627e\u673a\u4f1aQ\u9690\u8eab\u5728\u4ed6\u8eab\u540e\u653e\u76d2\u5b50\uff0c\u7136\u540e\u76f4\u63a5\u51b2\u4e0a\u53bb\u51fb\u6740\u3002<\/p>\n<p><img class=\"lazy\" data-original=\"https:\/\/si1.go2yd.com\/get-image\/0jCTE9rxyAC\" style=\"display:block; margin-left:auto; margin-right:auto;\" \/><\/p>\n<p>\u56e2\u6218\u7684\u65f6\u5019\uff0c\u53ef\u4ee5\u591a\u5229\u7528\u76d2\u5b50\u7684\u6446\u653e\u4f4d\u7f6e\u8fdb\u884c\u56e2\u6218\u3002\u6216\u8005\u53ef\u4ee5\u7ed5\u540e\u5207C\u4f4d\uff0c\u7136\u540e\u91cc\u7528Q\u6280\u80fd\u7684\u9690\u8eab\u9003\u8d70\u3002<\/p>\n<p><img class=\"lazy\" data-original=\"https:\/\/si1.go2yd.com\/get-image\/0jCTEACNads\" style=\"display:block; margin-left:auto; margin-right:auto;\" \/><\/p>\n<p>AP\u4e0a\u5355\u5c0f\u4e11\u8fd8\u662f\u4ee5\u5355\u5e26\u4e3a\u4e3b\uff0c\u4e00\u822c\u4eba\u6765\u6293\u81f3\u5c11\u4e24\u4eba\u4ee5\u4e0a\u624d\u80fd\u6293\u6b7b\u3002<\/p>\n<h2>\u603b\u7ed3<\/h2>\n<p><img class=\"lazy\" data-original=\"https:\/\/si1.go2yd.com\/get-image\/0jCTBUqAz2W\" style=\"display:block; margin-left:auto; margin-right:auto;\" \/><\/p>\n<p>\u8fd9\u4e2a\u82f1\u96c4\u7684\u73a9\u6cd5\u8fc7\u4e8e\u6bd2\u7624\uff0c\u73a9\u5bb6\u4eec\u53ef\u4ee5\u7528\u8fd9\u5957\u73a9\u6cd5\u53bb\u4e0a\u6ce2\u5206\uff0c\u5404\u4f4d\u5c0f\u4f19\u4f34\u4eec\u8d76\u7d27\u884c\u52a8\u8d77\u6765\u5427\u3002<\/p><span style=\"font-size:16px;font-family:Microsoft YaHei;color:#E53333;text-indent:2em\"><\/span> <\/div>\n",
            "created_at": null,
            "updated_at": null,
            "unix": "1597492860"
        }
    ],
    "first_page_url": "http:\/\/127.0.0.1:8000\/Information?page=1",
    "from": 1,
    "last_page": 47,
    "last_page_url": "http:\/\/127.0.0.1:8000\/Information?page=47",
    "next_page_url": "http:\/\/127.0.0.1:8000\/Information?page=2",
    "path": "http:\/\/127.0.0.1:8000\/Information",
    "per_page": 10,
    "prev_page_url": null,
    "to": 10,
    "total": 469
}
